qsim/SwitchPerpheral.msim.vcd
$comment
	File created using the following command:
		vcd file SwitchPerpheral.msim.vcd -direction
$end
$date
	Thu Jul 16 15:12:03 2026
$end
$version
	ModelSim Version 2020.1
$end
$timescale
	1ps
$end

$scope module switchperpheral_vhd_vec_tst $end
$var wire 1 ! CLOCK $end
$var wire 1 " EXT_WIRES [15] $end
$var wire 1 # EXT_WIRES [14] $end
$var wire 1 $ EXT_WIRES [13] $end
$var wire 1 % EXT_WIRES [12] $end
$var wire 1 & EXT_WIRES [11] $end
$var wire 1 ' EXT_WIRES [10] $end
$var wire 1 ( EXT_WIRES [9] $end
$var wire 1 ) EXT_WIRES [8] $end
$var wire 1 * EXT_WIRES [7] $end
$var wire 1 + EXT_WIRES [6] $end
$var wire 1 , EXT_WIRES [5] $end
$var wire 1 - EXT_WIRES [4] $end
$var wire 1 . EXT_WIRES [3] $end
$var wire 1 / EXT_WIRES [2] $end
$var wire 1 0 EXT_WIRES [1] $end
$var wire 1 1 EXT_WIRES [0] $end
$var wire 1 2 IO_ADDR [10] $end
$var wire 1 3 IO_ADDR [9] $end
$var wire 1 4 IO_ADDR [8] $end
$var wire 1 5 IO_ADDR [7] $end
$var wire 1 6 IO_ADDR [6] $end
$var wire 1 7 IO_ADDR [5] $end
$var wire 1 8 IO_ADDR [4] $end
$var wire 1 9 IO_ADDR [3] $end
$var wire 1 : IO_ADDR [2] $end
$var wire 1 ; IO_ADDR [1] $end
$var wire 1 < IO_ADDR [0] $end
$var wire 1 = IO_DATA [15] $end
$var wire 1 > IO_DATA [14] $end
$var wire 1 ? IO_DATA [13] $end
$var wire 1 @ IO_DATA [12] $end
$var wire 1 A IO_DATA [11] $end
$var wire 1 B IO_DATA [10] $end
$var wire 1 C IO_DATA [9] $end
$var wire 1 D IO_DATA [8] $end
$var wire 1 E IO_DATA [7] $end
$var wire 1 F IO_DATA [6] $end
$var wire 1 G IO_DATA [5] $end
$var wire 1 H IO_DATA [4] $end
$var wire 1 I IO_DATA [3] $end
$var wire 1 J IO_DATA [2] $end
$var wire 1 K IO_DATA [1] $end
$var wire 1 L IO_DATA [0] $end
$var wire 1 M IO_READ $end
$var wire 1 N IO_WRITE $end
$var wire 1 O RESETN $end

$scope module i1 $end
$var wire 1 P gnd $end
$var wire 1 Q vcc $end
$var wire 1 R unknown $end
$var wire 1 S devoe $end
$var wire 1 T devclrn $end
$var wire 1 U devpor $end
$var wire 1 V ww_devoe $end
$var wire 1 W ww_devclrn $end
$var wire 1 X ww_devpor $end
$var wire 1 Y ww_RESETN $end
$var wire 1 Z ww_CLOCK $end
$var wire 1 [ ww_IO_ADDR [10] $end
$var wire 1 \ ww_IO_ADDR [9] $end
$var wire 1 ] ww_IO_ADDR [8] $end
$var wire 1 ^ ww_IO_ADDR [7] $end
$var wire 1 _ ww_IO_ADDR [6] $end
$var wire 1 ` ww_IO_ADDR [5] $end
$var wire 1 a ww_IO_ADDR [4] $end
$var wire 1 b ww_IO_ADDR [3] $end
$var wire 1 c ww_IO_ADDR [2] $end
$var wire 1 d ww_IO_ADDR [1] $end
$var wire 1 e ww_IO_ADDR [0] $end
$var wire 1 f ww_IO_READ $end
$var wire 1 g ww_EXT_WIRES [15] $end
$var wire 1 h ww_EXT_WIRES [14] $end
$var wire 1 i ww_EXT_WIRES [13] $end
$var wire 1 j ww_EXT_WIRES [12] $end
$var wire 1 k ww_EXT_WIRES [11] $end
$var wire 1 l ww_EXT_WIRES [10] $end
$var wire 1 m ww_EXT_WIRES [9] $end
$var wire 1 n ww_EXT_WIRES [8] $end
$var wire 1 o ww_EXT_WIRES [7] $end
$var wire 1 p ww_EXT_WIRES [6] $end
$var wire 1 q ww_EXT_WIRES [5] $end
$var wire 1 r ww_EXT_WIRES [4] $end
$var wire 1 s ww_EXT_WIRES [3] $end
$var wire 1 t ww_EXT_WIRES [2] $end
$var wire 1 u ww_EXT_WIRES [1] $end
$var wire 1 v ww_EXT_WIRES [0] $end
$var wire 1 w ww_IO_WRITE $end
$var wire 1 x \IO_DATA[0]~output_o\ $end
$var wire 1 y \IO_DATA[1]~output_o\ $end
$var wire 1 z \IO_DATA[2]~output_o\ $end
$var wire 1 { \IO_DATA[3]~output_o\ $end
$var wire 1 | \IO_DATA[4]~output_o\ $end
$var wire 1 } \IO_DATA[5]~output_o\ $end
$var wire 1 ~ \IO_DATA[6]~output_o\ $end
$var wire 1 !! \IO_DATA[7]~output_o\ $end
$var wire 1 "! \IO_DATA[8]~output_o\ $end
$var wire 1 #! \IO_DATA[9]~output_o\ $end
$var wire 1 $! \IO_DATA[10]~output_o\ $end
$var wire 1 %! \IO_DATA[11]~output_o\ $end
$var wire 1 &! \IO_DATA[12]~output_o\ $end
$var wire 1 '! \IO_DATA[13]~output_o\ $end
$var wire 1 (! \IO_DATA[14]~output_o\ $end
$var wire 1 )! \IO_DATA[15]~output_o\ $end
$var wire 1 *! \CLOCK~input_o\ $end
$var wire 1 +! \IO_DATA[0]~input_o\ $end
$var wire 1 ,! \RESETN~input_o\ $end
$var wire 1 -! \IO_ADDR[5]~input_o\ $end
$var wire 1 .! \IO_ADDR[10]~input_o\ $end
$var wire 1 /! \IO_ADDR[0]~input_o\ $end
$var wire 1 0! \IO_ADDR[1]~input_o\ $end
$var wire 1 1! \IO_ADDR[2]~input_o\ $end
$var wire 1 2! \IO_ADDR[3]~input_o\ $end
$var wire 1 3! \IO_ADDR[4]~input_o\ $end
$var wire 1 4! \Equal0~0_combout\ $end
$var wire 1 5! \IO_ADDR[6]~input_o\ $end
$var wire 1 6! \IO_ADDR[7]~input_o\ $end
$var wire 1 7! \IO_ADDR[8]~input_o\ $end
$var wire 1 8! \IO_ADDR[9]~input_o\ $end
$var wire 1 9! \Equal0~1_combout\ $end
$var wire 1 :! \IO_WRITE~input_o\ $end
$var wire 1 ;! \process_0~0_combout\ $end
$var wire 1 <! \EXT_WIRES[0]~input_o\ $end
$var wire 1 =! \IO_DATA~32_combout\ $end
$var wire 1 >! \IO_READ~input_o\ $end
$var wire 1 ?! \IO_DATA~33_combout\ $end
$var wire 1 @! \IO_DATA[1]~input_o\ $end
$var wire 1 A! \EXT_WIRES[1]~input_o\ $end
$var wire 1 B! \IO_DATA~34_combout\ $end
$var wire 1 C! \IO_DATA[2]~input_o\ $end
$var wire 1 D! \EXT_WIRES[2]~input_o\ $end
$var wire 1 E! \IO_DATA~35_combout\ $end
$var wire 1 F! \IO_DATA[3]~input_o\ $end
$var wire 1 G! \EXT_WIRES[3]~input_o\ $end
$var wire 1 H! \IO_DATA~36_combout\ $end
$var wire 1 I! \IO_DATA[4]~input_o\ $end
$var wire 1 J! \EXT_WIRES[4]~input_o\ $end
$var wire 1 K! \IO_DATA~37_combout\ $end
$var wire 1 L! \IO_DATA[5]~input_o\ $end
$var wire 1 M! \EXT_WIRES[5]~input_o\ $end
$var wire 1 N! \IO_DATA~38_combout\ $end
$var wire 1 O! \IO_DATA[6]~input_o\ $end
$var wire 1 P! \EXT_WIRES[6]~input_o\ $end
$var wire 1 Q! \IO_DATA~39_combout\ $end
$var wire 1 R! \IO_DATA[7]~input_o\ $end
$var wire 1 S! \EXT_WIRES[7]~input_o\ $end
$var wire 1 T! \IO_DATA~40_combout\ $end
$var wire 1 U! \IO_DATA[8]~input_o\ $end
$var wire 1 V! \EXT_WIRES[8]~input_o\ $end
$var wire 1 W! \IO_DATA~41_combout\ $end
$var wire 1 X! \IO_DATA[9]~input_o\ $end
$var wire 1 Y! \EXT_WIRES[9]~input_o\ $end
$var wire 1 Z! \IO_DATA~42_combout\ $end
$var wire 1 [! \IO_DATA[10]~input_o\ $end
$var wire 1 \! \EXT_WIRES[10]~input_o\ $end
$var wire 1 ]! \IO_DATA~43_combout\ $end
$var wire 1 ^! \IO_DATA[11]~input_o\ $end
$var wire 1 _! \EXT_WIRES[11]~input_o\ $end
$var wire 1 `! \IO_DATA~44_combout\ $end
$var wire 1 a! \IO_DATA[12]~input_o\ $end
$var wire 1 b! \EXT_WIRES[12]~input_o\ $end
$var wire 1 c! \IO_DATA~45_combout\ $end
$var wire 1 d! \IO_DATA[13]~input_o\ $end
$var wire 1 e! \EXT_WIRES[13]~input_o\ $end
$var wire 1 f! \IO_DATA~46_combout\ $end
$var wire 1 g! \IO_DATA[14]~input_o\ $end
$var wire 1 h! \EXT_WIRES[14]~input_o\ $end
$var wire 1 i! \IO_DATA~47_combout\ $end
$var wire 1 j! \IO_DATA[15]~input_o\ $end
$var wire 1 k! \EXT_WIRES[15]~input_o\ $end
$var wire 1 l! \IO_DATA~48_combout\ $end
$var wire 1 m! MASK [15] $end
$var wire 1 n! MASK [14] $end
$var wire 1 o! MASK [13] $end
$var wire 1 p! MASK [12] $end
$var wire 1 q! MASK [11] $end
$var wire 1 r! MASK [10] $end
$var wire 1 s! MASK [9] $end
$var wire 1 t! MASK [8] $end
$var wire 1 u! MASK [7] $end
$var wire 1 v! MASK [6] $end
$var wire 1 w! MASK [5] $end
$var wire 1 x! MASK [4] $end
$var wire 1 y! MASK [3] $end
$var wire 1 z! MASK [2] $end
$var wire 1 {! MASK [1] $end
$var wire 1 |! MASK [0] $end
$var wire 1 }! ALT_INV_MASK [15] $end
$var wire 1 ~! ALT_INV_MASK [14] $end
$var wire 1 !" ALT_INV_MASK [13] $end
$var wire 1 "" ALT_INV_MASK [12] $end
$var wire 1 #" ALT_INV_MASK [11] $end
$var wire 1 $" ALT_INV_MASK [10] $end
$var wire 1 %" ALT_INV_MASK [9] $end
$var wire 1 &" ALT_INV_MASK [8] $end
$var wire 1 '" ALT_INV_MASK [7] $end
$var wire 1 (" ALT_INV_MASK [6] $end
$var wire 1 )" ALT_INV_MASK [5] $end
$var wire 1 *" ALT_INV_MASK [4] $end
$var wire 1 +" ALT_INV_MASK [3] $end
$var wire 1 ," ALT_INV_MASK [2] $end
$var wire 1 -" ALT_INV_MASK [1] $end
$var wire 1 ." ALT_INV_MASK [0] $end
$var wire 1 /" \ALT_INV_Equal0~1_combout\ $end
$var wire 1 0" \ALT_INV_Equal0~0_combout\ $end
$var wire 1 1" \ALT_INV_IO_WRITE~input_o\ $end
$var wire 1 2" \ALT_INV_EXT_WIRES[15]~input_o\ $end
$var wire 1 3" \ALT_INV_EXT_WIRES[14]~input_o\ $end
$var wire 1 4" \ALT_INV_EXT_WIRES[13]~input_o\ $end
$var wire 1 5" \ALT_INV_EXT_WIRES[12]~input_o\ $end
$var wire 1 6" \ALT_INV_EXT_WIRES[11]~input_o\ $end
$var wire 1 7" \ALT_INV_EXT_WIRES[10]~input_o\ $end
$var wire 1 8" \ALT_INV_EXT_WIRES[9]~input_o\ $end
$var wire 1 9" \ALT_INV_EXT_WIRES[8]~input_o\ $end
$var wire 1 :" \ALT_INV_EXT_WIRES[7]~input_o\ $end
$var wire 1 ;" \ALT_INV_EXT_WIRES[6]~input_o\ $end
$var wire 1 <" \ALT_INV_EXT_WIRES[5]~input_o\ $end
$var wire 1 =" \ALT_INV_EXT_WIRES[4]~input_o\ $end
$var wire 1 >" \ALT_INV_EXT_WIRES[3]~input_o\ $end
$var wire 1 ?" \ALT_INV_EXT_WIRES[2]~input_o\ $end
$var wire 1 @" \ALT_INV_EXT_WIRES[1]~input_o\ $end
$var wire 1 A" \ALT_INV_IO_ADDR[9]~input_o\ $end
$var wire 1 B" \ALT_INV_IO_ADDR[8]~input_o\ $end
$var wire 1 C" \ALT_INV_IO_ADDR[7]~input_o\ $end
$var wire 1 D" \ALT_INV_IO_ADDR[6]~input_o\ $end
$var wire 1 E" \ALT_INV_IO_ADDR[4]~input_o\ $end
$var wire 1 F" \ALT_INV_IO_ADDR[3]~input_o\ $end
$var wire 1 G" \ALT_INV_IO_ADDR[2]~input_o\ $end
$var wire 1 H" \ALT_INV_IO_ADDR[1]~input_o\ $end
$var wire 1 I" \ALT_INV_IO_ADDR[0]~input_o\ $end
$var wire 1 J" \ALT_INV_IO_ADDR[10]~input_o\ $end
$var wire 1 K" \ALT_INV_IO_ADDR[5]~input_o\ $end
$var wire 1 L" \ALT_INV_IO_READ~input_o\ $end
$var wire 1 M" \ALT_INV_EXT_WIRES[0]~input_o\ $end
$upscope $end
$upscope $end
$enddefinitions $end
#0
$dumpvars
0!
0M
0N
0O
0P
1Q
xR
1S
1T
1U
1V
1W
1X
0Y
0Z
0f
0w
zx
zy
zz
z{
z|
z}
z~
z!!
z"!
z#!
z$!
z%!
z&!
z'!
z(!
z)!
0*!
0+!
0,!
0-!
0.!
1/!
10!
01!
02!
03!
04!
05!
06!
07!
08!
19!
0:!
0;!
1<!
1=!
0>!
0?!
0@!
1A!
1B!
0C!
0D!
0E!
0F!
1G!
1H!
0I!
0J!
0K!
0L!
0M!
0N!
0O!
1P!
1Q!
0R!
0S!
0T!
0U!
0V!
0W!
0X!
0Y!
0Z!
0[!
0\!
0]!
0^!
0_!
0`!
0a!
0b!
0c!
0d!
0e!
0f!
0g!
0h!
0i!
0j!
0k!
0l!
0/"
10"
11"
12"
13"
14"
15"
16"
17"
18"
19"
1:"
0;"
1<"
1="
0>"
1?"
0@"
1A"
1B"
1C"
1D"
1E"
1F"
1G"
0H"
0I"
1J"
1K"
1L"
0M"
0"
0#
0$
0%
0&
0'
0(
0)
0*
1+
0,
0-
1.
0/
10
11
02
03
04
05
06
07
08
09
0:
1;
1<
0=
0>
0?
0@
0A
0B
0C
0D
0E
0F
0G
0H
0I
0J
0K
0L
0[
0\
0]
0^
0_
0`
0a
0b
0c
1d
1e
0g
0h
0i
0j
0k
0l
0m
0n
0o
1p
0q
0r
1s
0t
1u
1v
0m!
0n!
0o!
0p!
0q!
0r!
0s!
0t!
0u!
0v!
0w!
0x!
0y!
0z!
0{!
0|!
1}!
1~!
1!"
1""
1#"
1$"
1%"
1&"
1'"
1("
1)"
1*"
1+"
1,"
1-"
1."
$end
#20000
1=
1?
1d!
1j!
#40000
1O
1I
1J
1K
1L
1Y
1+!
1@!
1C!
1F!
1,!
#50000
1!
1Z
1*!
#100000
0!
0Z
0*!
#120000
1N
1w
1:!
01"
#150000
1!
1Z
1*!
#180000
0N
0w
0:!
11"
#200000
0!
0=
0?
0Z
0d!
0j!
0*!
#240000
0I
0J
0K
0L
1M
1f
0+!
0@!
0C!
0F!
1>!
0L"
#250000
1!
1Z
1*!
#300000
0!
0M
1C
1D
1E
1F
0Z
0f
1O!
1R!
1U!
1X!
0>!
0*!
1L"
#350000
1!
1Z
1*!
#400000
0!
0;
0<
0Z
0e
0d
00!
0/!
0*!
1I"
1H"
#420000
1:
1c
11!
0G"
#450000
1!
1Z
1*!
#460000
1N
1w
1:!
01"
#500000
0!
0Z
0*!
#550000
1!
1Z
1*!
#580000
0N
0w
0:!
11"
#600000
0!
0Z
0*!
#620000
1M
1f
1>!
0L"
#650000
1!
1Z
1*!
#700000
0!
0M
0Z
0f
0>!
0*!
1L"
#750000
1!
1Z
1*!
#800000
0!
0Z
0*!
#850000
1!
1Z
1*!
#900000
0!
0C
0D
0E
0F
0Z
0O!
0R!
0U!
0X!
0*!
#950000
1!
1Z
1*!
#980000
0:
0c
01!
1G"
